simulation.vcd
$date
	Mon Apr 13 01:33:22 2026
$end
$version
	Icarus Verilog
$end
$timescale
	1ps
$end
$scope module Project_3_Abdulrahmaan_lawal_tb $end
$var wire 32 ! out [31:0] $end
$var wire 1 " Z $end
$var wire 1 # V $end
$var wire 1 $ N $end
$var wire 1 % C $end
$var reg 1 & clk $end
$var reg 32 ' ina [31:0] $end
$var reg 32 ( inb [31:0] $end
$var reg 5 ) opcode [4:0] $end
$var reg 1 * rst $end
$scope module uut $end
$var wire 1 & clk $end
$var wire 32 + ina [31:0] $end
$var wire 32 , inb [31:0] $end
$var wire 5 - opcode [4:0] $end
$var wire 1 * rst $end
$var reg 1 % C $end
$var reg 1 $ N $end
$var reg 1 # V $end
$var reg 1 " Z $end
$var reg 32 . out [31:0] $end
$upscope $end
$upscope $end
$enddefinitions $end
$comment Show the parameter values. $end
$dumpall
$end
#0
$dumpvars
bx .
bx -
bx ,
bx +
1*
bx )
bx (
bx '
0&
x%
x$
x#
x"
bx !
$end
#10
0#
0%
0$
0"
b0 !
b0 .
1&
#20
0&
b1 )
b1 -
b0 (
b0 ,
b10010001101000101011001111000 '
b10010001101000101011001111000 +
0*
#30
b10010001101000101011001111000 !
b10010001101000101011001111000 .
1&
#40
0&
b0 '
b0 +
#50
b0 !
b0 .
1&
#60
0&
b11 )
b11 -
b1 (
b1 ,
b11111111111111111111111111111111 '
b11111111111111111111111111111111 +
#70
1%
1"
1&
#80
0&
b11111111111111111111111111111111 (
b11111111111111111111111111111111 ,
#90
1$
0"
b11111111111111111111111111111110 !
b11111111111111111111111111111110 .
1&
#100
0&
b10000000000000000000000000000000 (
b10000000000000000000000000000000 ,
b10000000000000000000000000000000 '
b10000000000000000000000000000000 +
#110
1#
0$
1"
b0 !
b0 .
1&
#120
0&
b100 )
b100 -
b1 (
b1 ,
b0 '
b0 +
#130
0#
1$
0"
b11111111111111111111111111111111 !
b11111111111111111111111111111111 .
1&
#140
0&
b1010 (
b1010 ,
b101 '
b101 +
#150
b11111111111111111111111111111011 !
b11111111111111111111111111111011 .
1&
#160
0&
b101 )
b101 -
b1111000011110000111100001111 (
b1111000011110000111100001111 ,
b11110000111100001111000011110000 '
b11110000111100001111000011110000 +
#170
1"
b0 !
b0 .
1&
#180
0&
#190
1&
#200
0&
b110 )
b110 -
#210
0"
b11111111111111111111111111111111 !
b11111111111111111111111111111111 .
1&
#220
0&
b111 )
b111 -
b111111111111111100000000 (
b111111111111111100000000 ,
b11111111111111110000000000000000 '
b11111111111111110000000000000000 +
#230
b11111111000000001111111100000000 !
b11111111000000001111111100000000 .
1&
#240
0&
b11011110101011011011111011101111 (
b11011110101011011011111011101111 ,
b11011110101011011011111011101111 '
b11011110101011011011111011101111 +
#250
1"
b0 !
b0 .
1&
#260
0&
b1000 )
b1000 -
b0 (
b0 ,
b11111111111111110000000000000000 '
b11111111111111110000000000000000 +
#270
0"
b1111111111111111 !
b1111111111111111 .
1&
#280
0&
b1001 )
b1001 -
b100 (
b100 ,
b1 '
b1 +
#290
0%
b10000 !
b10000 .
1&
#300
0&
b1 (
b1 ,
b10000000000000000000000000000000 '
b10000000000000000000000000000000 +
#310
1%
1"
b0 !
b0 .
1&
#320
0&
b0 (
b0 ,
b10010001101000101011001111000 '
b10010001101000101011001111000 +
#330
0%
0"
b10010001101000101011001111000 !
b10010001101000101011001111000 .
1&
#340
0&
b1010 )
b1010 -
b10 (
b10 ,
b10000 '
b10000 +
#350
b100 !
b100 .
1&
#360
0&
b11111 (
b11111 ,
b10000000000000000000000000000000 '
b10000000000000000000000000000000 +
#370
b1 !
b1 .
1&
