CPU/isim.log
ISim log file
Running: /home/ise/Shared_drive_for_ECE_4375/CPU/CPU_tb_isim_beh.exe -intstyle ise -gui -tclbatch isim.cmd -wdb /home/ise/Shared_drive_for_ECE_4375/CPU/CPU_tb_isim_beh.wdb 
ISim P.20131013 (signature 0xfbc00daa)
----------------------------------------------------------------------
INFO:Security:61 - The XILINXD_LICENSE_FILE environment variable is not set.
INFO:Security:63 - The LM_LICENSE_FILE environment variable is not set.
INFO:Security:68 - For more information or for assistance in obtaining 
 a license, please run the Xilinx License Configuration Manager
       (xlcm or "Manage Xilinx Licenses".)
INFO:Security:68a - user is ise, on host localhost.localdomain.
INFO:Security:15 - A feature for ISIM was found but is for the wrong hostid.
ERROR:Security:14 - No feature was available for 'ISIM'.

Invalid host.
 The hostid of this system does not match the hostid
 specified in the license file.
Feature:       ISIM
Hostid:        08002768c935
License path:  /home/ise/.Xilinx/Xilinx.lic:/opt/Xilinx/14.7/ISE_DS/ISE//data/*.lic:/opt/Xilinx/14.7/ISE_DS/ISE//coregen/core_licenses/Xilinx.lic:/opt/Xilinx/14.7/ISE_DS/ISE//coregen/core_licenses/XilinxFree.lic:/opt/Xilinx/14.7/ISE_DS/EDK/data/core_licenses/Xilinx.lic:
FLEXnet Licensing error:-9,57
For further information, refer to the FLEXnet Licensing documentation,
available at "www.flexerasoftware.com".
----------------------------------------------------------------------
WARNING: A full ISim License cannot be checked out due to the issues listed above. Please use Xilinx License Configuration Manager to fix these issues in order to check out a full ISim license.
WARNING: ISim will run in Lite mode. Please refer to the ISim documentation for more information on the differences between the Lite and the Full version.
This is a Lite version of ISim.
Time resolution is 1 ps
# onerror resume
# wave add /
# run 1000 ns
Simulator is doing circuit initialization process.
time	clk	rst	pc	rom_word		ir		rd	load	alu_result	write_data	write_en
Finished circuit initialization process.
0	0	1	0	0100100000005	0000000000000	0	0	00000000	00000000	0
5000	1	1	0	0100100000005	0000000000000	0	0	00000000	00000000	0
10000	0	1	0	0100100000005	0000000000000	0	0	00000000	00000000	0
12000	0	0	0	0100100000005	0000000000000	0	0	00000000	00000000	0
15000	1	0	1	0100200000003	0100100000005	1	1	00000005	00000005	0
DBG : ir=0100100000005 rd=1 rs1=0 imm=5 load=1 bus_a=0 bus_b=0 alu=5 write=5
REGS: R1=0 R2=0 R3=0 R4=0 R5=0 R6=0 R7=0 R8=0 R9=0 R10=0 R12=0
20000	0	0	1	0100200000003	0100100000005	1	1	00000005	00000005	0
25000	1	0	2	0302300000002	0100200000003	2	1	00000003	00000003	0
DBG : ir=0100200000003 rd=2 rs1=0 imm=3 load=1 bus_a=0 bus_b=0 alu=3 write=3
REGS: R1=5 R2=0 R3=0 R4=0 R5=0 R6=0 R7=0 R8=0 R9=0 R10=0 R12=0
30000	0	0	2	0302300000002	0100200000003	2	1	00000003	00000003	0
35000	1	0	3	0406400000001	0302300000002	3	1	00000007	00000007	0
DBG : ir=0302300000002 rd=3 rs1=1 imm=2 load=1 bus_a=5 bus_b=3 alu=7 write=7
REGS: R1=5 R2=3 R3=0 R4=0 R5=0 R6=0 R7=0 R8=0 R9=0 R10=0 R12=0
40000	0	0	3	0406400000001	0302300000002	3	1	00000007	00000007	0
45000	1	0	4	0508500000006	0406400000001	4	1	00000006	00000006	0
DBG : ir=0406400000001 rd=4 rs1=3 imm=1 load=1 bus_a=7 bus_b=5 alu=6 write=6
REGS: R1=5 R2=3 R3=7 R4=0 R5=0 R6=0 R7=0 R8=0 R9=0 R10=0 R12=0
50000	0	0	4	0508500000006	0406400000001	4	1	00000006	00000006	0
55000	1	0	5	060a600000001	0508500000006	5	1	00000006	00000006	0
DBG : ir=0508500000006 rd=5 rs1=4 imm=6 load=1 bus_a=6 bus_b=0 alu=6 write=6
REGS: R1=5 R2=3 R3=7 R4=6 R5=0 R6=0 R7=0 R8=0 R9=0 R10=0 R12=0
60000	0	0	5	060a600000001	0508500000006	5	1	00000006	00000006	0
65000	1	0	6	070c700000007	060a600000001	6	1	00000007	00000007	0
DBG : ir=060a600000001 rd=6 rs1=5 imm=1 load=1 bus_a=6 bus_b=5 alu=7 write=7
REGS: R1=5 R2=3 R3=7 R4=6 R5=6 R6=0 R7=0 R8=0 R9=0 R10=0 R12=0
70000	0	0	6	070c700000007	060a600000001	6	1	00000007	00000007	0
75000	1	0	7	090e800000001	070c700000007	7	1	00000000	00000000	0
DBG : ir=070c700000007 rd=7 rs1=6 imm=7 load=1 bus_a=7 bus_b=0 alu=0 write=0
REGS: R1=5 R2=3 R3=7 R4=6 R5=6 R6=7 R7=0 R8=0 R9=0 R10=0 R12=0
80000	0	0	7	090e800000001	070c700000007	7	1	00000000	00000000	0
85000	1	0	8	0a10900000001	090e800000001	8	1	00000000	00000000	0
DBG : ir=090e800000001 rd=8 rs1=7 imm=1 load=1 bus_a=0 bus_b=5 alu=0 write=0
REGS: R1=5 R2=3 R3=7 R4=6 R5=6 R6=7 R7=0 R8=0 R9=0 R10=0 R12=0
90000	0	0	8	0a10900000001	090e800000001	8	1	00000000	00000000	0
95000	1	0	9	1200000000002	0a10900000001	9	1	00000000	00000000	0
DBG : ir=0a10900000001 rd=9 rs1=8 imm=1 load=1 bus_a=0 bus_b=5 alu=0 write=0
REGS: R1=5 R2=3 R3=7 R4=6 R5=6 R6=7 R7=0 R8=0 R9=0 R10=0 R12=0
100000	0	0	9	1200000000002	0a10900000001	9	1	00000000	00000000	0
105000	1	0	10	0100a00000063	1200000000002	0	0	00000000	00000000	0
DBG : ir=1200000000002 rd=0 rs1=0 imm=2 load=0 bus_a=0 bus_b=3 alu=0 write=0
REGS: R1=5 R2=3 R3=7 R4=6 R5=6 R6=7 R7=0 R8=0 R9=0 R10=0 R12=0
110000	0	0	10	0100a00000063	1200000000002	0	0	00000000	00000000	0
115000	1	0	12	0100c0000002a	0100a00000063	10	1	00000063	00000063	0
DBG : ir=0100a00000063 rd=10 rs1=0 imm=99 load=1 bus_a=0 bus_b=7 alu=99 write=99
REGS: R1=5 R2=3 R3=7 R4=6 R5=6 R6=7 R7=0 R8=0 R9=0 R10=0 R12=0
120000	0	0	12	0100c0000002a	0100a00000063	10	1	00000063	00000063	0
125000	1	0	13	0000000000000	0100c0000002a	12	1	0000002a	0000002a	0
DBG : ir=0100c0000002a rd=12 rs1=0 imm=42 load=1 bus_a=0 bus_b=99 alu=42 write=42
REGS: R1=5 R2=3 R3=7 R4=6 R5=6 R6=7 R7=0 R8=0 R9=0 R10=99 R12=0
130000	0	0	13	0000000000000	0100c0000002a	12	1	0000002a	0000002a	0
135000	1	0	14	0000000000000	0000000000000	0	0	0000002a	0000002a	0
DBG : ir=0000000000000 rd=0 rs1=0 imm=0 load=0 bus_a=0 bus_b=0 alu=42 write=42
REGS: R1=5 R2=3 R3=7 R4=6 R5=6 R6=7 R7=0 R8=0 R9=0 R10=99 R12=42
140000	0	0	14	0000000000000	0000000000000	0	0	0000002a	0000002a	0
145000	1	0	15	0000000000000	0000000000000	0	0	0000002a	0000002a	0
DBG : ir=0000000000000 rd=0 rs1=0 imm=0 load=0 bus_a=0 bus_b=0 alu=42 write=42
REGS: R1=5 R2=3 R3=7 R4=6 R5=6 R6=7 R7=0 R8=0 R9=0 R10=99 R12=42
150000	0	0	15	0000000000000	0000000000000	0	0	0000002a	0000002a	0
155000	1	0	16	0000000000000	0000000000000	0	0	0000002a	0000002a	0
DBG : ir=0000000000000 rd=0 rs1=0 imm=0 load=0 bus_a=0 bus_b=0 alu=42 write=42
REGS: R1=5 R2=3 R3=7 R4=6 R5=6 R6=7 R7=0 R8=0 R9=0 R10=99 R12=42
160000	0	0	16	0000000000000	0000000000000	0	0	0000002a	0000002a	0
165000	1	0	17	0000000000000	0000000000000	0	0	0000002a	0000002a	0
DBG : ir=0000000000000 rd=0 rs1=0 imm=0 load=0 bus_a=0 bus_b=0 alu=42 write=42
REGS: R1=5 R2=3 R3=7 R4=6 R5=6 R6=7 R7=0 R8=0 R9=0 R10=99 R12=42
170000	0	0	17	0000000000000	0000000000000	0	0	0000002a	0000002a	0
Stopped at time : 172 ns : File "/home/ise/Shared_drive_for_ECE_4375/CPU/CPU_tb.v" Line 60
