bevDispenser/bevDispenser_tb.vcd
$date
	Sun Feb 22 17:15:52 2026
$end
$version
	Icarus Verilog
$end
$timescale
	1ps
$end
$scope module bevDispenser_tb $end
$var wire 1 ! outbev4 $end
$var wire 1 " outbev3 $end
$var wire 1 # outbev2 $end
$var wire 1 $ outbev1 $end
$var wire 10 % change [9:0] $end
$var reg 1 & inbev1 $end
$var reg 1 ' inbev2 $end
$var reg 1 ( inbev3 $end
$var reg 1 ) inbev4 $end
$var reg 10 * moneycounter [9:0] $end
$var reg 1 + rst $end
$scope module uut $end
$var wire 1 , beventered $end
$var wire 1 & inbev1 $end
$var wire 1 ' inbev2 $end
$var wire 1 ( inbev3 $end
$var wire 1 ) inbev4 $end
$var wire 10 - moneycounter [9:0] $end
$var wire 1 + rst $end
$var parameter 9 . BEV1_VALUE $end
$var parameter 9 / BEV2_VALUE $end
$var parameter 9 0 BEV3_VALUE $end
$var parameter 9 1 BEV4_VALUE $end
$var reg 10 2 change [9:0] $end
$var reg 1 $ outbev1 $end
$var reg 1 # outbev2 $end
$var reg 1 " outbev3 $end
$var reg 1 ! outbev4 $end
$var reg 10 3 tottalbevvalue [9:0] $end
$upscope $end
$upscope $end
$enddefinitions $end
$comment Show the parameter values. $end
$dumpall
b11111010 1
b11100001 0
b11001000 /
b10101111 .
$end
#0
$dumpvars
bx 3
b0 2
b0 -
0,
1+
b0 *
0)
0(
0'
0&
b0 %
0$
0#
0"
0!
$end
#20000
0+
#40000
b10101111 *
b10101111 -
#50000
bx %
bx 2
b10101111 3
1$
1,
1&
#70000
0,
0&
#80000
b0 %
b0 2
0$
1+
#100000
0+
#120000
b11111010 *
b11111010 -
#130000
b1001011 %
b1001011 2
b11001000 3
1#
1,
1'
#150000
0,
0'
#160000
b0 %
b0 2
0#
1+
#180000
0+
#200000
b11001000 *
b11001000 -
#210000
b11100001 3
1"
1,
1(
#230000
0,
0(
#240000
0"
1+
#260000
0+
#280000
b11111010 *
b11111010 -
#290000
b11001 %
b11001 2
b11111010 3
1!
1,
1)
#310000
0,
0)
#320000
b0 %
b0 2
0!
1+
#340000
0+
#360000
b111110100 *
b111110100 -
#370000
b11111010 %
b11111010 2
b10101111 3
1$
1,
1&
#390000
0,
0&
#400000
b11001 %
b11001 2
b11001000 3
1#
0$
1,
1'
b11001000 *
b11001000 -
#420000
0,
0'
#440000
b0 %
b0 2
0#
1+
#460000
0+
#470000
1+
#490000
0+
#510000
b0 *
b0 -
#520000
b1100111000 %
b1100111000 2
b10101111 3
1$
1,
1&
#540000
0,
0&
#550000
b0 %
b0 2
0$
1+
#570000
0+
#590000
b11001000 *
b11001000 -
#600000
b11001 %
b11001 2
b11001000 3
1#
1,
1'
#620000
0,
0'
